{
  "customer": [
    {
      "id": "default",
      "cart": [],
      "totalAmount": 0,
      "date": "",
      "numbers": 0
    }
  ],
  "products": [
    {
      "id": 1,
      "price": 560,
      "title": "無毒無籽檸檬(小箱)",
      "subtitle": "7台斤±10%/箱 📦 常溫宅配免運費 NT$560",
      "imageUrl": "https://i.imgur.com/iwFinUO.jpg"
    },
    {
      "id": 2,
      "price": 700,
      "title": "無毒無籽檸檬(大箱)",
      "subtitle": "10台斤±10%/箱 📦 常溫宅配免運費 NT$700",
      "imageUrl": "https://i.imgur.com/g8MdKoF.jpg"
    }
  ],
  "services": [
    {
      "id": 1,
      "serviceName": "光療指甲",
      "projects": [
        {
          "projectId": "1-1",
          "projectName": "透明光療",
          "time": "30mins",
          "price": "500",
          "imageUrl": "https://assets.no8.io/%E5%85%89%E7%99%82-%E9%80%8F%E6%98%8E%E5%85%89%E7%99%82.png"
        },
        {
          "projectId": "1-2",
          "projectName": "時尚純色 / 璀璨漸層",
          "time": "40mins",
          "price": "750",
          "imageUrl": "https://assets.no8.io/%E5%85%89%E7%99%82-%E6%99%82%E5%B0%9A%E7%B4%94%E8%89%B2.png"
        },
        {
          "projectId": "1-3",
          "projectName": "補甲",
          "time": "30~60mins",
          "price": "700",
          "imageUrl": "https://assets.no8.io/%E5%85%89%E7%99%82-%E8%A3%9C%E7%94%B2.png"
        },
        {
          "projectId": "1-4",
          "projectName": "上層光亮",
          "time": "30mins",
          "price": "200",
          "imageUrl": "https://assets.no8.io/%E5%85%89%E7%99%82-%E4%B8%8A%E5%B1%A4%E4%BA%AE%E5%85%89.png"
        }
      ]
    },
    {
      "id": 2,
      "serviceName": "水晶指甲",
      "projects": [
        {
          "projectId": "2-1",
          "projectName": "自然水晶指甲",
          "time": "90mins",
          "price": "1200",
          "imageUrl": "https://assets.no8.io/%E6%B0%B4%E6%99%B6-%E8%87%AA%E7%84%B6.png"
        },
        {
          "projectId": "2-2",
          "projectName": "璀璨水晶指甲",
          "time": "120mins",
          "price": "1400",
          "imageUrl": "https://assets.no8.io/%E6%B0%B4%E6%99%B6-%E7%92%80%E7%92%A8.png"
        },
        {
          "projectId": "2-3",
          "projectName": "創意彩繪水晶",
          "time": "120mins",
          "price": "1600",
          "imageUrl": "https://assets.no8.io/%E6%B0%B4%E6%99%B6-%E5%89%B5%E6%84%8F.png"
        },
        {
          "projectId": "2-4",
          "projectName": "琉璃璀璨水晶",
          "time": "120mins",
          "price": "2000",
          "imageUrl": "https://assets.no8.io/%E6%B0%B4%E6%99%B6-%E7%90%89%E7%92%83.png"
        }
      ]
    },
    {
      "id": 3,
      "serviceName": "手部保養",
      "projects": [
        {
          "projectId": "3-1",
          "projectName": "手部基礎護理",
          "time": "20mins",
          "price": "250",
          "imageUrl": "https://assets.no8.io/%E6%89%8B%E9%83%A8-%E5%9F%BA%E7%A4%8E%E8%AD%B7%E7%90%86.png"
        },
        {
          "projectId": "3-2",
          "projectName": "手部基礎保養",
          "time": "50mins",
          "price": "600",
          "imageUrl": "https://assets.no8.io/%E6%89%8B%E9%83%A8-%E5%9F%BA%E7%A4%8E%E4%BF%9D%E9%A4%8A.png"
        },
        {
          "projectId": "3-3",
          "projectName": "手部深層保養",
          "time": "80mins",
          "price": "850",
          "imageUrl": "https://assets.no8.io/%E6%89%8B%E9%83%A8-%E6%B7%B1%E5%B1%A4%E4%BF%9D%E9%A4%8A.png"
        }
      ]
    },
    {
      "id": 4,
      "serviceName": "足部保養",
      "projects": [
        {
          "projectId": "4-1",
          "projectName": "足部基礎護理",
          "time": "20mins",
          "price": "350",
          "imageUrl": "https://assets.no8.io/%E8%B6%B3%E9%83%A8-%E5%9F%BA%E7%A4%8E%E8%AD%B7%E7%90%86.png"
        },
        {
          "projectId": "4-2",
          "projectName": "足部基礎保養",
          "time": "60mins",
          "price": "950",
          "imageUrl": "https://assets.no8.io/%E8%B6%B3%E9%83%A8-%E5%9F%BA%E7%A4%8E%E4%BF%9D%E9%A4%8A.png"
        },
        {
          "projectId": "4-3",
          "projectName": "足部深層保養",
          "time": "120mins",
          "price": "1550",
          "imageUrl": "https://assets.no8.io/%E8%B6%B3%E9%83%A8-%E6%B7%B1%E5%B1%A4%E4%BF%9D%E9%A4%8A.png"
        }
      ]
    }
  ],
  "rooms": [
    {
      "id": 1,
      "roomName": "🛌 舒適簡潔的房型",
      "price": 2400
    },
    {
      "id": 2,
      "roomName": "🛌🛌 舒適簡潔的四人房",
      "price": 3200
    },
    {
      "id": 3,
      "roomName": "🛌🛌 熱帶島嶼的四人房",
      "price": 3200
    },
    {
      "id": 4,
      "roomName": "🚪 🛌 整棟是我的全世界",
      "price": 9000
    }
  ]
}